+-----------------------------------------------------------------------------------------------------------------------------------------------------+
|                                                                                                                                                     |
|                                                         Vystup profilingu pre 10 cisel                                                              |
|                                                                                                                                                     |
+-----------------------------------------------------------------------------------------------------------------------------------------------------+

+-------------------------------------------------------------------------------------------------------+----------------+------------------+---------+
|                                               Call Tree                                               |   Time (ms)    |  Avg. Time (ms)  |  Count  |
+-------------------------------------------------------------------------------------------------------+----------------+------------------+---------+
|  +---<All threads>                                                                                    |     45  100 %  |                  |         |
|    |                                                                                                  |                |                  |         |
|    +---ivs2017.profiling.Profiling.main(String[])                                                     |     45  100 %  |              45  |      1  |
|      |                                                                                                |                |                  |         |
|      +---Profiling.java:46 ivs2017.profiling.Profiling.Deviation(ArrayList)                           |     43   96 %  |              43  |      1  |
|      | |                                                                                              |                |                  |         |
|      | +---Profiling.java:92 ivs2017.backend.Operator.div(double, double)                             |     23   51 %  |              23  |      1  |
|      | | |                                                                                            |                |                  |         |
|      | | +---Operator.java:60 ivs2017.backend.Operator.round(double)                                  |     23   51 %  |              23  |      1  |
|      | |   |                                                                                          |                |                  |         |
|      | |   +---Operator.java <...> java.math.BigDecimal.<clinit>()                                    |      9   20 %  |               9  |      1  |
|      | |   |                                                                                          |                |                  |         |
|      | |   +---Operator.java <...> java.lang.ClassLoader.loadClass(String)                            |      8   18 %  |               8  |      1  |
|      | |   |                                                                                          |                |                  |         |
|      | |   +---Operator.java:116 <...> java.lang.String.valueOf(double)                               |      2    4 %  |               2  |      1  |
|      | |   |                                                                                          |                |                  |         |
|      | |   +---Operator.java:116 <...> java.math.BigDecimal.doubleValue()                             |      1    2 %  |               1  |      1  |
|      | |   |                                                                                          |                |                  |         |
|      | |   +---Operator.java:116 <...> java.math.BigDecimal.<init>(String)                            |      1    2 %  |               1  |      1  |
|      | |   |                                                                                          |                |                  |         |
|      | |   +---Operator.java:116 <...> java.math.BigDecimal.setScale(int, int)                        |  < 0.1    0 %  |           < 0.1  |      1  |
|      | |   |                                                                                          |                |                  |         |
|      | |   +---Operator.java <...> java.lang.ClassLoader.checkPackageAccess(Class, ProtectionDomain)  |  < 0.1    0 %  |           < 0.1  |      1  |
|      | |                                                                                              |                |                  |         |
|      | +---Profiling.java:87 <...> java.lang.ClassLoader.loadClass(String)                            |     14   31 %  |              14  |      1  |
|      | |                                                                                              |                |                  |         |
|      | +---Profiling.java:95 ivs2017.backend.Operator.power(double, double)                           |      3    7 %  |               3  |      1  |
|      | | |                                                                                            |                |                  |         |
|      | | +---Operator.java:86 ivs2017.backend.Operator.round(double)                                  |      3    7 %  |               3  |      1  |
|      | | | |                                                                                          |                |                  |         |
|      | | | +---Operator.java:116 <...> java.math.BigDecimal.doubleValue()                             |      3    7 %  |               3  |      1  |
|      | | | |                                                                                          |                |                  |         |
|      | | | +---Operator.java:116 <...> java.math.BigDecimal.<init>(String)                            |  < 0.1    0 %  |           < 0.1  |      1  |
|      | | | |                                                                                          |                |                  |         |
|      | | | +---Operator.java:116 <...> java.lang.String.valueOf(double)                               |  < 0.1    0 %  |           < 0.1  |      1  |
|      | | | |                                                                                          |                |                  |         |
|      | | | +---Operator.java:116 <...> java.math.BigDecimal.setScale(int, int)                        |  < 0.1    0 %  |           < 0.1  |      1  |
|      | | |                                                                                            |                |                  |         |
|      | | +---Operator.java:86 <...> java.lang.ClassLoader.loadClass(String)                           |  < 0.1    0 %  |           < 0.1  |      1  |
|      | | |                                                                                            |                |                  |         |
|      | | +---Operator.java <...> java.lang.ClassLoader.checkPackageAccess(Class, ProtectionDomain)    |  < 0.1    0 %  |           < 0.1  |      1  |
|      | |                                                                                              |                |                  |         |
|      | +---Profiling.java:102 ivs2017.backend.Operator.power(double, double)                          |      1    2 %  |             0.1  |     10  |
|      | |                                                                                              |                |                  |         |
|      | +---Profiling.java:95 ivs2017.backend.Operator.mul(double, double)                             |    0.4    0 %  |             0.4  |      1  |
|      | |                                                                                              |                |                  |         |
|      | +---Profiling.java:109 ivs2017.backend.Operator.mul(double, double)                            |    0.1    0 %  |             0.1  |      1  |
|      | |                                                                                              |                |                  |         |
|      | +---Profiling.java <...> java.lang.ClassLoader.loadClass(String)                               |    0.1    0 %  |           < 0.1  |      2  |
|      | |                                                                                              |                |                  |         |
|      | +---Profiling.java:112 ivs2017.backend.Operator.root(double, double)                           |  < 0.1    0 %  |           < 0.1  |      1  |
|      | |                                                                                              |                |                  |         |
|      | +---Profiling.java:109 ivs2017.backend.Operator.div(double, double)                            |  < 0.1    0 %  |           < 0.1  |      1  |
|      | |                                                                                              |                |                  |         |
|      | +---Profiling.java <...> java.lang.ClassLoader.checkPackageAccess(Class, ProtectionDomain)     |  < 0.1    0 %  |           < 0.1  |      1  |
|      | |                                                                                              |                |                  |         |
|      | +---Profiling.java:92 ivs2017.profiling.Profiling.Sum(ArrayList)                               |  < 0.1    0 %  |           < 0.1  |      1  |
|      | |                                                                                              |                |                  |         |
|      | +---Profiling.java:102 <...> java.util.ArrayList.get(int)                                      |  < 0.1    0 %  |               0  |     10  |
|      | |                                                                                              |                |                  |         |
|      | +---Profiling.java:87 ivs2017.backend.Operator.<init>()                                        |  < 0.1    0 %  |           < 0.1  |      1  |
|      |                                                                                                |                |                  |         |
|      +---Profiling.java:46 <...> java.lang.ClassLoader.loadClass(String)                              |    0.8    0 %  |             0.4  |      2  |
|      |                                                                                                |                |                  |         |
|      +---Profiling.java <...> java.io.PrintStream.println(String)                                     |    0.8    0 %  |             0.8  |      1  |
|      |                                                                                                |                |                  |         |
|      +---Profiling.java:35 <...> java.lang.Double.valueOf(String)                                     |    0.1    0 %  |           < 0.1  |     10  |
|      |                                                                                                |                |                  |         |
|      +---Profiling.java:46 <...> java.lang.StringBuilder.append(double)                               |  < 0.1    0 %  |           < 0.1  |      1  |
|      |                                                                                                |                |                  |         |
|      +---Profiling.java <...> java.lang.ClassLoader.loadClass(String)                                 |  < 0.1    0 %  |           < 0.1  |      1  |
|      |                                                                                                |                |                  |         |
|      +---Profiling.java <...> java.lang.Double.valueOf(String)                                        |  < 0.1    0 %  |           < 0.1  |      1  |
|      |                                                                                                |                |                  |         |
|      +---Profiling.java:35 <...> java.lang.ClassLoader.loadClass(String)                              |  < 0.1    0 %  |           < 0.1  |      1  |
|      |                                                                                                |                |                  |         |
|      +---Profiling.java <...> java.lang.ClassLoader.checkPackageAccess(Class, ProtectionDomain)       |  < 0.1    0 %  |           < 0.1  |      4  |
|      |                                                                                                |                |                  |         |
|      +---Profiling.java:35 <...> java.util.ArrayList.add(Object)                                      |  < 0.1    0 %  |           < 0.1  |     10  |
|      |                                                                                                |                |                  |         |
|      +---Profiling.java:46 <...> java.lang.StringBuilder.<init>(String)                               |  < 0.1    0 %  |           < 0.1  |      1  |
|      |                                                                                                |                |                  |         |
|      +---Profiling.java:24 <...> java.util.ArrayList.<init>()                                         |  < 0.1    0 %  |           < 0.1  |      1  |
|      |                                                                                                |                |                  |         |
|      +---Profiling.java:27 java.lang.String.equals(Object)                                            |      0    0 %  |               0  |      1  |
|      |                                                                                                |                |                  |         |
|      +---Profiling.java:46 <...> java.lang.StringBuilder.toString()                                   |      0    0 %  |               0  |      1  |
+-------------------------------------------------------------------------------------------------------+----------------+------------------+---------+

+-----------------------------------------------------------------------------------------------------------------------------------------------------+
|                                                                                                                                                     |
|                                                         Vystup profilingu pre 100 cisel                                                             |
|                                                                                                                                                     |
+-----------------------------------------------------------------------------------------------------------------------------------------------------+

+-------------------------------------------------------------------------------------------------------+----------------+------------------+---------+
|                                               Call Tree                                               |   Time (ms)    |  Avg. Time (ms)  |  Count  |
+-------------------------------------------------------------------------------------------------------+----------------+------------------+---------+
|  +---<All threads>                                                                                    |     48  100 %  |                  |         |
|    |                                                                                                  |                |                  |         |
|    +---ivs2017.profiling.Profiling.main(String[])                                                     |     48  100 %  |              48  |      1  |
|      |                                                                                                |                |                  |         |
|      +---Profiling.java:46 ivs2017.profiling.Profiling.Deviation(ArrayList)                           |     45   94 %  |              45  |      1  |
|      | |                                                                                              |                |                  |         |
|      | +---Profiling.java:92 ivs2017.backend.Operator.div(double, double)                             |     22   46 %  |              22  |      1  |
|      | | |                                                                                            |                |                  |         |
|      | | +---Operator.java:60 ivs2017.backend.Operator.round(double)                                  |     22   46 %  |              22  |      1  |
|      | |   |                                                                                          |                |                  |         |
|      | |   +---Operator.java <...> java.math.BigDecimal.<clinit>()                                    |      8   17 %  |               8  |      1  |
|      | |   |                                                                                          |                |                  |         |
|      | |   +---Operator.java <...> java.lang.ClassLoader.loadClass(String)                            |      8   17 %  |               8  |      1  |
|      | |   |                                                                                          |                |                  |         |
|      | |   +---Operator.java:116 <...> java.lang.String.valueOf(double)                               |      2    4 %  |               2  |      1  |
|      | |   |                                                                                          |                |                  |         |
|      | |   +---Operator.java:116 <...> java.math.BigDecimal.<init>(String)                            |      1    2 %  |               1  |      1  |
|      | |   |                                                                                          |                |                  |         |
|      | |   +---Operator.java:116 <...> java.math.BigDecimal.doubleValue()                             |      1    2 %  |               1  |      1  |
|      | |   |                                                                                          |                |                  |         |
|      | |   +---Operator.java:116 <...> java.math.BigDecimal.setScale(int, int)                        |  < 0.1    0 %  |           < 0.1  |      1  |
|      | |   |                                                                                          |                |                  |         |
|      | |   +---Operator.java <...> java.lang.ClassLoader.checkPackageAccess(Class, ProtectionDomain)  |  < 0.1    0 %  |           < 0.1  |      1  |
|      | |                                                                                              |                |                  |         |
|      | +---Profiling.java:102 ivs2017.backend.Operator.power(double, double)                          |     15   31 %  |             0.1  |    100  |
|      | | |                                                                                            |                |                  |         |
|      | | +---Operator.java:86 ivs2017.backend.Operator.round(double)                                  |     15   31 %  |             0.1  |    100  |
|      | |   |                                                                                          |                |                  |         |
|      | |   +---Operator.java:116 <...> java.math.BigDecimal.doubleValue()                             |      9   19 %  |           < 0.1  |    100  |
|      | |   |                                                                                          |                |                  |         |
|      | |   +---Operator.java:116 <...> java.lang.String.valueOf(double)                               |      2    4 %  |           < 0.1  |    100  |
|      | |   |                                                                                          |                |                  |         |
|      | |   +---Operator.java:116 <...> java.math.BigDecimal.<init>(String)                            |      1    2 %  |           < 0.1  |    100  |
|      | |   |                                                                                          |                |                  |         |
|      | |   +---Operator.java:116 <...> java.math.BigDecimal.setScale(int, int)                        |      1    2 %  |           < 0.1  |    100  |
|      | |                                                                                              |                |                  |         |
|      | +---Profiling.java:95 ivs2017.backend.Operator.power(double, double)                           |      4    8 %  |               4  |      1  |
|      | | |                                                                                            |                |                  |         |
|      | | +---Operator.java:86 ivs2017.backend.Operator.round(double)                                  |      4    8 %  |               4  |      1  |
|      | | | |                                                                                          |                |                  |         |
|      | | | +---Operator.java:116 <...> java.math.BigDecimal.doubleValue()                             |      4    8 %  |               4  |      1  |
|      | | | |                                                                                          |                |                  |         |
|      | | | +---Operator.java:116 <...> java.math.BigDecimal.<init>(String)                            |    0.1    0 %  |             0.1  |      1  |
|      | | | |                                                                                          |                |                  |         |
|      | | | +---Operator.java:116 <...> java.lang.String.valueOf(double)                               |  < 0.1    0 %  |           < 0.1  |      1  |
|      | | | |                                                                                          |                |                  |         |
|      | | | +---Operator.java:116 <...> java.math.BigDecimal.setScale(int, int)                        |  < 0.1    0 %  |           < 0.1  |      1  |
|      | | |                                                                                            |                |                  |         |
|      | | +---Operator.java:86 <...> java.lang.ClassLoader.loadClass(String)                           |  < 0.1    0 %  |           < 0.1  |      1  |
|      | | |                                                                                            |                |                  |         |
|      | | +---Operator.java <...> java.lang.ClassLoader.checkPackageAccess(Class, ProtectionDomain)    |  < 0.1    0 %  |           < 0.1  |      1  |
|      | |                                                                                              |                |                  |         |
|      | +---Profiling.java:109 ivs2017.backend.Operator.mul(double, double)                            |      1    2 %  |               1  |      1  |
|      | |                                                                                              |                |                  |         |
|      | +---Profiling.java:87 <...> java.lang.ClassLoader.loadClass(String)                            |      1    2 %  |               1  |      1  |
|      | |                                                                                              |                |                  |         |
|      | +---Profiling.java:95 ivs2017.backend.Operator.mul(double, double)                             |    0.4    0 %  |             0.4  |      1  |
|      | |                                                                                              |                |                  |         |
|      | +---Profiling.java:92 ivs2017.profiling.Profiling.Sum(ArrayList)                               |    0.2    0 %  |             0.2  |      1  |
|      | |                                                                                              |                |                  |         |
|      | +---Profiling.java:109 ivs2017.backend.Operator.div(double, double)                            |    0.1    0 %  |             0.1  |      1  |
|      | |                                                                                              |                |                  |         |
|      | +---Profiling.java <...> java.lang.ClassLoader.loadClass(String)                               |    0.1    0 %  |           < 0.1  |      2  |
|      | |                                                                                              |                |                  |         |
|      | +---Profiling.java:112 ivs2017.backend.Operator.root(double, double)                           |  < 0.1    0 %  |           < 0.1  |      1  |
|      | |                                                                                              |                |                  |         |
|      | +---Profiling.java:102 <...> java.util.ArrayList.get(int)                                      |  < 0.1    0 %  |               0  |    100  |
|      | |                                                                                              |                |                  |         |
|      | +---Profiling.java <...> java.lang.ClassLoader.checkPackageAccess(Class, ProtectionDomain)     |  < 0.1    0 %  |           < 0.1  |      1  |
|      | |                                                                                              |                |                  |         |
|      | +---Profiling.java:87 ivs2017.backend.Operator.<init>()                                        |  < 0.1    0 %  |           < 0.1  |      1  |
|      |                                                                                                |                |                  |         |
|      +---Profiling.java:35 <...> java.lang.Double.valueOf(String)                                     |    0.9    0 %  |           < 0.1  |    100  |
|      |                                                                                                |                |                  |         |
|      +---Profiling.java:46 <...> java.lang.ClassLoader.loadClass(String)                              |    0.5    0 %  |             0.2  |      2  |
|      |                                                                                                |                |                  |         |
|      +---Profiling.java <...> java.io.PrintStream.println(String)                                     |    0.3    0 %  |             0.3  |      1  |
|      |                                                                                                |                |                  |         |
|      +---Profiling.java:35 <...> java.util.ArrayList.add(Object)                                      |    0.2    0 %  |           < 0.1  |    100  |
|      |                                                                                                |                |                  |         |
|      +---Profiling.java:46 <...> java.lang.StringBuilder.append(double)                               |  < 0.1    0 %  |           < 0.1  |      1  |
|      |                                                                                                |                |                  |         |
|      +---Profiling.java:35 <...> java.lang.ClassLoader.loadClass(String)                              |  < 0.1    0 %  |           < 0.1  |      1  |
|      |                                                                                                |                |                  |         |
|      +---Profiling.java <...> java.lang.Double.valueOf(String)                                        |  < 0.1    0 %  |           < 0.1  |      1  |
|      |                                                                                                |                |                  |         |
|      +---Profiling.java <...> java.lang.ClassLoader.loadClass(String)                                 |  < 0.1    0 %  |           < 0.1  |      1  |
|      |                                                                                                |                |                  |         |
|      +---Profiling.java <...> java.lang.ClassLoader.checkPackageAccess(Class, ProtectionDomain)       |  < 0.1    0 %  |           < 0.1  |      4  |
|      |                                                                                                |                |                  |         |
|      +---Profiling.java:46 <...> java.lang.StringBuilder.<init>(String)                               |  < 0.1    0 %  |           < 0.1  |      1  |
|      |                                                                                                |                |                  |         |
|      +---Profiling.java:24 <...> java.util.ArrayList.<init>()                                         |  < 0.1    0 %  |           < 0.1  |      1  |
|      |                                                                                                |                |                  |         |
|      +---Profiling.java:27 java.lang.String.equals(Object)                                            |      0    0 %  |               0  |      1  |
|      |                                                                                                |                |                  |         |
|      +---Profiling.java:46 <...> java.lang.StringBuilder.toString()                                   |      0    0 %  |               0  |      1  |
+-------------------------------------------------------------------------------------------------------+----------------+------------------+---------+

+-----------------------------------------------------------------------------------------------------------------------------------------------------+
|                                                                                                                                                     |
|                                                         Vystup profilingu pre 1000 cisel                                                            |
|                                                                                                                                                     |
+-----------------------------------------------------------------------------------------------------------------------------------------------------+

+-------------------------------------------------------------------------------------------------------+----------------+------------------+---------+
|                                               Call Tree                                               |   Time (ms)    |  Avg. Time (ms)  |  Count  |
+-------------------------------------------------------------------------------------------------------+----------------+------------------+---------+
|  +---<All threads>                                                                                    |    258  100 %  |                  |         |
|    |                                                                                                  |                |                  |         |
|    +---ivs2017.profiling.Profiling.main(String[])                                                     |    258  100 %  |             258  |      1  |
|      |                                                                                                |                |                  |         |
|      +---Profiling.java:46 ivs2017.profiling.Profiling.Deviation(ArrayList)                           |    231   90 %  |             231  |      1  |
|      | |                                                                                              |                |                  |         |
|      | +---Profiling.java:87 <...> java.lang.ClassLoader.loadClass(String)                            |    115   45 %  |             115  |      1  |
|      | |                                                                                              |                |                  |         |
|      | +---Profiling.java:102 ivs2017.backend.Operator.power(double, double)                          |     99   38 %  |           < 0.1  |  1,000  |
|      | | |                                                                                            |                |                  |         |
|      | | +---Operator.java:86 ivs2017.backend.Operator.round(double)                                  |     99   38 %  |           < 0.1  |  1,000  |
|      | |   |                                                                                          |                |                  |         |
|      | |   +---Operator.java:116 <...> java.math.BigDecimal.doubleValue()                             |     67   26 %  |           < 0.1  |  1,000  |
|      | |   |                                                                                          |                |                  |         |
|      | |   +---Operator.java:116 <...> java.lang.String.valueOf(double)                               |     13    5 %  |           < 0.1  |  1,000  |
|      | |   |                                                                                          |                |                  |         |
|      | |   +---Operator.java:116 <...> java.math.BigDecimal.setScale(int, int)                        |      8    3 %  |           < 0.1  |  1,000  |
|      | |   |                                                                                          |                |                  |         |
|      | |   +---Operator.java:116 <...> java.math.BigDecimal.<init>(String)                            |      8    3 %  |           < 0.1  |  1,000  |
|      | |                                                                                              |                |                  |         |
|      | +---Profiling.java:92 ivs2017.backend.Operator.div(double, double)                             |      7    3 %  |               7  |      1  |
|      | | |                                                                                            |                |                  |         |
|      | | +---Operator.java:60 ivs2017.backend.Operator.round(double)                                  |      7    3 %  |               7  |      1  |
|      | |   |                                                                                          |                |                  |         |
|      | |   +---Operator.java:116 <...> java.lang.String.valueOf(double)                               |      3    1 %  |               3  |      1  |
|      | |   |                                                                                          |                |                  |         |
|      | |   +---Operator.java:116 <...> java.math.BigDecimal.<init>(String)                            |      1    0 %  |               1  |      1  |
|      | |   |                                                                                          |                |                  |         |
|      | |   +---Operator.java <...> java.math.BigDecimal.<clinit>()                                    |      1    0 %  |               1  |      1  |
|      | |   |                                                                                          |                |                  |         |
|      | |   +---Operator.java:116 <...> java.math.BigDecimal.doubleValue()                             |    0.5    0 %  |             0.5  |      1  |
|      | |   |                                                                                          |                |                  |         |
|      | |   +---Operator.java <...> java.lang.ClassLoader.loadClass(String)                            |  < 0.1    0 %  |           < 0.1  |      1  |
|      | |   |                                                                                          |                |                  |         |
|      | |   +---Operator.java:116 <...> java.math.BigDecimal.setScale(int, int)                        |  < 0.1    0 %  |           < 0.1  |      1  |
|      | |   |                                                                                          |                |                  |         |
|      | |   +---Operator.java <...> java.lang.ClassLoader.checkPackageAccess(Class, ProtectionDomain)  |  < 0.1    0 %  |           < 0.1  |      1  |
|      | |                                                                                              |                |                  |         |
|      | +---Profiling.java:95 ivs2017.backend.Operator.power(double, double)                           |      3    1 %  |               3  |      1  |
|      | | |                                                                                            |                |                  |         |
|      | | +---Operator.java:86 ivs2017.backend.Operator.round(double)                                  |      3    1 %  |               3  |      1  |
|      | | |                                                                                            |                |                  |         |
|      | | +---Operator.java:86 <...> java.lang.ClassLoader.loadClass(String)                           |  < 0.1    0 %  |           < 0.1  |      1  |
|      | | |                                                                                            |                |                  |         |
|      | | +---Operator.java <...> java.lang.ClassLoader.checkPackageAccess(Class, ProtectionDomain)    |  < 0.1    0 %  |           < 0.1  |      1  |
|      | |                                                                                              |                |                  |         |
|      | +---Profiling.java:92 ivs2017.profiling.Profiling.Sum(ArrayList)                               |      1    0 %  |               1  |      1  |
|      | |                                                                                              |                |                  |         |
|      | +---Profiling.java:102 <...> java.util.ArrayList.get(int)                                      |    0.5    0 %  |               0  |  1,000  |
|      | |                                                                                              |                |                  |         |
|      | +---Profiling.java <...> java.lang.ClassLoader.loadClass(String)                               |    0.4    0 %  |             0.2  |      2  |
|      | |                                                                                              |                |                  |         |
|      | +---Profiling.java:109 ivs2017.backend.Operator.div(double, double)                            |    0.3    0 %  |             0.3  |      1  |
|      | |                                                                                              |                |                  |         |
|      | +---Profiling.java:95 ivs2017.backend.Operator.mul(double, double)                             |    0.2    0 %  |             0.2  |      1  |
|      | |                                                                                              |                |                  |         |
|      | +---Profiling.java:109 ivs2017.backend.Operator.mul(double, double)                            |    0.1    0 %  |             0.1  |      1  |
|      | |                                                                                              |                |                  |         |
|      | +---Profiling.java:112 ivs2017.backend.Operator.root(double, double)                           |  < 0.1    0 %  |           < 0.1  |      1  |
|      | |                                                                                              |                |                  |         |
|      | +---Profiling.java <...> java.lang.ClassLoader.checkPackageAccess(Class, ProtectionDomain)     |  < 0.1    0 %  |           < 0.1  |      1  |
|      | |                                                                                              |                |                  |         |
|      | +---Profiling.java:87 ivs2017.backend.Operator.<init>()                                        |  < 0.1    0 %  |           < 0.1  |      1  |
|      |                                                                                                |                |                  |         |
|      +---Profiling.java:35 <...> java.lang.Double.valueOf(String)                                     |     23    9 %  |           < 0.1  |  1,000  |
|      |                                                                                                |                |                  |         |
|      +---Profiling.java:35 <...> java.util.ArrayList.add(Object)                                      |      1    0 %  |           < 0.1  |  1,000  |
|      |                                                                                                |                |                  |         |
|      +---Profiling.java:46 <...> java.lang.ClassLoader.loadClass(String)                              |    0.6    0 %  |             0.3  |      2  |
|      |                                                                                                |                |                  |         |
|      +---Profiling.java <...> java.io.PrintStream.println(String)                                     |    0.4    0 %  |             0.4  |      1  |
|      |                                                                                                |                |                  |         |
|      +---Profiling.java:46 <...> java.lang.StringBuilder.append(double)                               |    0.1    0 %  |             0.1  |      1  |
|      |                                                                                                |                |                  |         |
|      +---Profiling.java:35 <...> java.lang.ClassLoader.loadClass(String)                              |  < 0.1    0 %  |           < 0.1  |      1  |
|      |                                                                                                |                |                  |         |
|      +---Profiling.java <...> java.lang.Double.valueOf(String)                                        |  < 0.1    0 %  |           < 0.1  |      1  |
|      |                                                                                                |                |                  |         |
|      +---Profiling.java <...> java.lang.ClassLoader.loadClass(String)                                 |  < 0.1    0 %  |           < 0.1  |      1  |
|      |                                                                                                |                |                  |         |
|      +---Profiling.java <...> java.lang.ClassLoader.checkPackageAccess(Class, ProtectionDomain)       |  < 0.1    0 %  |           < 0.1  |      4  |
|      |                                                                                                |                |                  |         |
|      +---Profiling.java:46 <...> java.lang.StringBuilder.<init>(String)                               |  < 0.1    0 %  |           < 0.1  |      1  |
|      |                                                                                                |                |                  |         |
|      +---Profiling.java:24 <...> java.util.ArrayList.<init>()                                         |  < 0.1    0 %  |           < 0.1  |      1  |
|      |                                                                                                |                |                  |         |
|      +---Profiling.java:27 java.lang.String.equals(Object)                                            |      0    0 %  |               0  |      1  |
|      |                                                                                                |                |                  |         |
|      +---Profiling.java:46 <...> java.lang.StringBuilder.toString()                                   |      0    0 %  |               0  |      1  |
+-------------------------------------------------------------------------------------------------------+----------------+------------------+---------+